Sample	no_feature	ambiguous	too_low_aQual	not_aligned	alignment_not_unique	assigned	total_count	percent_assigned
SRR3480371.htseq	26510	7096	132630	1111	0	300213	467560	64.20844383608521
SRR3480372.htseq	33436	9233	212740	1334	0	391378	648121	60.38656362006477
SRR3480373.htseq	32142	8562	645294	1557	0	381284	1068839	35.672725265451575
SRR3480374.htseq	40776	10585	273704	1823	0	473315	800203	59.14936584841597
